[
      {
        "productName": "Parking sensors",
        "price": "1.756",
        "imgURL": "https://content.rozetka.com.ua/goods/images/big/160179109.jpg",
        "productArticle": 100156,
        "productColor": "black"
      },
      {
        "productName": "Camera is universal Gazer",
        "price": "1.189",
        "imgURL": "https://elauto.com.ua/wa-data/public/shop/products/09/40/4009/images/8091/8091.970.jpg",
        "productArticle": 44863,
        "productColor": "black"
      },
      {
        "productName": "Video recorder Gazer",
        "price": "3.949",
        "imgURL": "https://content2.rozetka.com.ua/goods/images/big/72621960.jpg",
        "productArticle": 2666016,
        "productColor": "black"
      },
      {
        "productName": "Mirror with video recorder Aspiring",
        "price": "4.245",
        "imgURL": "https://aspiring.ua/wp-content/uploads/2021/08/maxi_3_1.1.png",
        "productArticle": 545964,
        "productColor": "silver"
      },
      {
        "productName": "GPS-traacker Starline",
        "price": "5.525",
        "imgURL": "https://mircaraudio.com/getimg.php?file=store/image0_33447.jpg&w=750&h=750&rand=650",
        "productArticle": 177582,
        "productColor": "white"
      },
      {
        "productName": "Navigation Navitel",
        "price": "2.415",
        "imgURL": "https://i.citrus.world/imgcache/size_800/uploads/shop/0/e/0e7466f210a559e7776ec7c9aea2fa8f.jpg",
        "productArticle": 209524,
        "productColor": "black"
      },
      {
        "productName": "Speakerphone Parrot ASTEROID Mini",
        "price": "9.778",
        "imgURL": "https://f.428.ua/img/1642037/3000/2000/gromkaya_svyaz_parrot_asteroid_mini~841~484.jpg",
        "productArticle": 88642,
        "productColor": "silver"
      },
      {
        "productName": "Anti-radar SHO-ME",
        "price": "7.999",
        "imgURL": "https://content1.rozetka.com.ua/goods/images/big/165077604.jpg",
        "productArticle": 558144,
        "productColor": "black"
      },
      {
        "productName": "Anti-radar Stinger",
        "price": "4.868",
        "imgURL": "https://content.rozetka.com.ua/goods/images/big/45469803.jpg",
        "productArticle": 10409,
        "productColor": "silver/black"
      },
      {
        "productName": "Car battery VARTA",
        "price": "2.797",
        "imgURL": "https://content2.rozetka.com.ua/goods/images/big/12538959.jpg",
        "productArticle": 42623,
        "productColor": "silver"
      },
      {
        "productName": "Car battery EXIDE",
        "price": "2.742",
        "imgURL": "https://content1.rozetka.com.ua/goods/images/big/192100113.jpg",
        "productArticle": 154024,
        "productColor": "silver/black"
      },
      {
        "productName": "Car battery Bosch",
        "price": "2.792",
        "imgURL": "https://content.rozetka.com.ua/goods/images/big/65724277.jpg",
        "productArticle": 38369,
        "productColor": "silver/black"
      }
]